^C:\USERS\USER\DESKTOP\תכנות C++\LESSON05\WINSHELL\WINSHELL\HELPER.CPP|C:\USERS\USER\DESKTOP\תכנות C++\LESSON05\WINSHELL\WINSHELL\SHELL.CPP|C:\USERS\USER\DESKTOP\תכנות C++\LESSON05\WINSHELL\WINSHELL\SOURCE.CPP
C:\USERS\USER\DESKTOP\תכנות C++\LESSON05\WINSHELL\WINSHELL\DEBUG\VC141.PDB
C:\USERS\USER\DESKTOP\תכנות C++\LESSON05\WINSHELL\WINSHELL\DEBUG\VC141.IDB
C:\USERS\USER\DESKTOP\תכנות C++\LESSON05\WINSHELL\WINSHELL\DEBUG\HELPER.OBJ
C:\USERS\USER\DESKTOP\תכנות C++\LESSON05\WINSHELL\WINSHELL\DEBUG\SOURCE.OBJ
^C:\USERS\USER\DESKTOP\תכנות C++\LESSON05\WINSHELL\WINSHELL\HELPER.CPP
C:\USERS\USER\DESKTOP\תכנות C++\LESSON05\WINSHELL\WINSHELL\DEBUG\VC141.PDB
^C:\USERS\USER\DESKTOP\תכנות C++\LESSON05\WINSHELL\WINSHELL\SHELL.CPP
C:\USERS\USER\DESKTOP\תכנות C++\LESSON05\WINSHELL\WINSHELL\DEBUG\VC141.PDB
C:\USERS\USER\DESKTOP\תכנות C++\LESSON05\WINSHELL\WINSHELL\DEBUG\VC141.IDB
C:\USERS\USER\DESKTOP\תכנות C++\LESSON05\WINSHELL\WINSHELL\DEBUG\SHELL.OBJ
^C:\USERS\USER\DESKTOP\תכנות C++\LESSON05\WINSHELL\WINSHELL\SOURCE.CPP
C:\USERS\USER\DESKTOP\תכנות C++\LESSON05\WINSHELL\WINSHELL\DEBUG\VC141.PDB
^C:\USERS\USER\DESKTOP\תכנות C++\LESSON05\WINSHELL\WINSHELL\SHELL.CPP|C:\USERS\USER\DESKTOP\תכנות C++\LESSON05\WINSHELL\WINSHELL\SOURCE.CPP
C:\USERS\USER\DESKTOP\תכנות C++\LESSON05\WINSHELL\WINSHELL\DEBUG\VC141.PDB
C:\USERS\USER\DESKTOP\תכנות C++\LESSON05\WINSHELL\WINSHELL\DEBUG\VC141.IDB
C:\USERS\USER\DESKTOP\תכנות C++\LESSON05\WINSHELL\WINSHELL\DEBUG\SOURCE.OBJ
C:\USERS\USER\DESKTOP\תכנות C++\LESSON05\WINSHELL\WINSHELL\DEBUG\SHELL.OBJ
